<?xml version="1.0" encoding="utf-8"?>
<!-- Generator: Adobe Illustrator 22.1.0, SVG Export Plug-In . SVG Version: 6.00 Build 0)  -->
<svg version="1.1" id="Capa_1" xmlns="http://www.w3.org/2000/svg"  x="0px" y="0px"
	 viewBox="0 0 490.7 490.7" style="enable-background:new 0 0 490.7 490.7;" xml:space="preserve">
<style type="text/css">
	.st00001111{fill:#FFC107;}
	.st11111122{fill:#323E48;}
</style>
<path class="st00001111" d="M472.3,120.5L245.2,347.7L18.1,120.5c-4.2-4.1-11-4-15.1,0.3c-4,4.1-4,10.7,0,14.8l234.7,234.7
	c4.2,4.2,10.9,4.2,15.1,0l234.7-234.7c4.2-4.1,4.4-10.8,0.3-15.1c-4.1-4.2-10.8-4.4-15.1-0.3C472.5,120.4,472.4,120.4,472.3,120.5
	L472.3,120.5z"/>
<path class="st11111122" d="M245.2,373.4c-2.8,0-5.5-1.1-7.6-3.1L3,135.6c-4.1-4.2-4-11,0.3-15.1c4.1-4,10.7-4,14.8,0l227.1,227.1
	l227.1-227.1c4.1-4.2,10.8-4.4,15.1-0.3c4.2,4.1,4.4,10.8,0.3,15.1c-0.1,0.1-0.2,0.2-0.3,0.3L252.7,370.3
	C250.7,372.3,248,373.4,245.2,373.4z"/>
</svg>
